…
# std dev for rewards by treatment
s2 = sl %>%
  mutate(beeColHive = interaction(beeCol, hive), 
         reward= grepl(pattern = "t", x = .$rewTF, ignore.case = TRUE)*1) 

s3 = s2 %>%
  group_by(beeColHive, trt2) %>%
  dplyr::summarize(mean_reward = mean(reward)) %>%
  group_by(trt2) %>%
  dplyr::arrange(desc(trt2)) 

s3

## # A tibble: 66 x 3
## # Groups:   trt2 [4]
##    beeColHive     trt2  mean_reward
##    <fct>          <chr>       <dbl>
##  1 limepurple.5   low         0.210
##  2 limered.5      low         0.118
##  3 redpink.5      low         0.791
##  4 whiteblue.5    low         0.187
##  5 whitegold.5    low         0.371
##  6 whiteorange.5  low         0.147
##  7 yellowpink.5   low         0.208
##  8 yellowpurple.5 low         0.156
##  9 orange.3       high        0.471
## 10 redpurple.5    high        0.552
## # ... with 56 more rows
…
# plot bee size in the groups
sl_sum <- sl %>%
  dplyr::select(beeColHive, trt2, IT_imputed) %>%
  distinct(beeColHive, trt2, .keep_all = TRUE) 

sl_sum %>% print(n = 50)

## # A tibble: 66 x 3
##    beeColHive         trt2   IT_imputed
##    <fct>              <chr>       <dbl>
##  1 blue.4             full         3.61
##  2 gold.3             full         4.05
##  3 goldred.4          full         3.01
##  4 green.4            full         4.21
##  5 green.4            full_2       4.21
##  6 lime.5             full         4.02
##  7 limeblue.5         full_2       4.69
##  8 limeblue.5         full         4.69
##  9 limegold.5         full         4.31
## 10 limegreen.5        full         3.74
## 11 limeorange.5       full_2       3.98
## 12 limeorange.5       full         3.98
## 13 limepink.5         full         4.13
## 14 limepurple.5       low          3.48
## 15 limepurple.5       full         3.48
## 16 limepurpleyellow.5 full         3.75
## 17 limered.5          low          4.15
## 18 limered.5          full         4.15
## 19 limesilver.5       full         3.4 
## 20 limewhite.5        full_2       3.76
## 21 limewhite.5        full         3.76
## 22 limeyellow.5       full         3.67
## 23 orange.3           high         3.99
## 24 orange.3           full         3.99
## 25 orangeblue.5       full         4.61
## 26 orangegreen.5      full         4.37
## 27 orangepink.5       full         3.96
## 28 orangepurple.5     full         4.02
## 29 purple.3           full         3.99
## 30 redblue.4          full_2       3.75
## 31 redblue.4          full         3.75
## 32 redgreen.5         full_2       4.12
## 33 redgreen.5         full         4.12
## 34 redpink.5          low          4.21
## 35 redpink.5          full         4.21
## 36 redpurple.5        full         4.34
## 37 redpurple.5        high         4.34
## 38 silver.5           full         4.23
## 39 white.4            full         4.03
## 40 white.4            full_2       4.03
## 41 whiteblue.5        low          4.34
## 42 whiteblue.5        full         4.34
## 43 whitegold.5        full         4.63
## 44 whitegold.5        low          4.63
## 45 whitegreen.4       full         4   
## 46 whiteorange.5      low          4.46
## 47 whiteorange.5      full         4.46
## 48 whitepink.5        high         4.59
## 49 whitepink.5        full         4.59
## 50 whitepurple.5      full         4.45
## # ... with 16 more rows
…
s2 <- s2 %>%
  mutate(trt3 = plyr::mapvalues(.$trt2, from = c("full_2", "high", "low"), 
                        to = c("Full range\n(220 - 450 Hz)", 
                               "High range\n(340 - 390 Hz)", 
                               "Low range\n(220 - 330 Hz)")))

s44 <- full_join(s2, s4)

## Joining, by = c("beeColHive", "trt2", "trt3")

s44

## # A tibble: 24 x 6
##    beeColHive   trt2   IT_imputed trt3                   mean_freq sd_freq
##    <fct>        <chr>       <dbl> <chr>                      <dbl>   <dbl>
##  1 green.4      full_2       4.21 "Full range\n(220 - 4~      285     59.2
##  2 limeblue.5   full_2       4.69 "Full range\n(220 - 4~      304.    40.1
##  3 limeorange.5 full_2       3.98 "Full range\n(220 - 4~      345.    26.7
##  4 limepurple.5 low          3.48 "Low range\n(220 - 33~      344.    32.6
##  5 limered.5    low          4.15 "Low range\n(220 - 33~      365.    37.1
##  6 limewhite.5  full_2       3.76 "Full range\n(220 - 4~      327.    35.5
##  7 orange.3     high         3.99 "High range\n(340 - 3~      382.    27.5
##  8 redblue.4    full_2       3.75 "Full range\n(220 - 4~      341.    43.3
##  9 redgreen.5   full_2       4.12 "Full range\n(220 - 4~      326.    36.4
## 10 redpink.5    low          4.21 "Low range\n(220 - 33~      290.    39.1
## # ... with 14 more rows
…
#plot 95% confidence intervals
# "Mean and bootstrap CI based on fixed-effects uncertainty ONLY"
# rename labels for plot
pframe$trt3 = plyr::mapvalues(pframe$trt, from = c("full", "high", "low"), 
                        to = c("Full range\n(220 - 450 Hz)", 
                               "High range\n(340 - 390 Hz)",
                               "Low range\n(220 - 330 Hz)"))

s44 <- full_join(s2, s4)

## Joining, by = c("beeColHive", "trt2", "trt3")

s2

## # A tibble: 24 x 4
##    beeColHive   trt2   IT_imputed trt3                        
##    <fct>        <chr>       <dbl> <chr>                       
##  1 green.4      full_2       4.21 "Full range\n(220 - 450 Hz)"
##  2 limeblue.5   full_2       4.69 "Full range\n(220 - 450 Hz)"
##  3 limeorange.5 full_2       3.98 "Full range\n(220 - 450 Hz)"
##  4 limepurple.5 low          3.48 "Low range\n(220 - 330 Hz)" 
##  5 limered.5    low          4.15 "Low range\n(220 - 330 Hz)" 
##  6 limewhite.5  full_2       3.76 "Full range\n(220 - 450 Hz)"
##  7 orange.3     high         3.99 "High range\n(340 - 390 Hz)"
##  8 redblue.4    full_2       3.75 "Full range\n(220 - 450 Hz)"
##  9 redgreen.5   full_2       4.12 "Full range\n(220 - 450 Hz)"
## 10 redpink.5    low          4.21 "Low range\n(220 - 330 Hz)" 
## # ... with 14 more rows
…
fta <- sl %>% 
  filter(trialNum == 1) %>% 
  dplyr::group_by(beeColHive) %>%
  dplyr::summarise(initialFreq = mean(freq)) %>%
  full_join(sl) %>%
  mutate(freqDiff = freq- initialFreq) %>%
  filter(beeColHive %in% .$beeColHive[.$trialNum > 1]) %>%
  dplyr::arrange(trt) 

## Joining, by = "beeColHive"

fta[fta$beeColHive == "limepurple.5", ]

## # A tibble: 296 x 29
##    beeColHive initialFreq beeCol  hive meanFreq IT_imputed index  freq
##    <fct>            <dbl> <chr>  <int>    <dbl>      <dbl> <int> <dbl>
##  1 limepurpl~        352. limep~     5     341.       3.48     1   410
##  2 limepurpl~        352. limep~     5     341.       3.48     2   310
##  3 limepurpl~        352. limep~     5     341.       3.48     3   390
##  4 limepurpl~        352. limep~     5     341.       3.48     4   370
##  5 limepurpl~        352. limep~     5     341.       3.48     5   370
##  6 limepurpl~        352. limep~     5     341.       3.48     6   330
##  7 limepurpl~        352. limep~     5     341.       3.48     7   360
##  8 limepurpl~        352. limep~     5     341.       3.48     8   360
##  9 limepurpl~        352. limep~     5     341.       3.48     9   240
## 10 limepurpl~        352. limep~     5     341.       3.48    10   300
## # ... with 286 more rows, and 21 more variables: amp <dbl>,
## #   datetime <chr>, rewNum <int>, rewTF <lgl>, lowRewAmp <int>,
## #   highrewAmp <int>, BeeNumCol <chr>, accFile <chr>, trialNum <int>,
## #   datetime_str <dttm>, lowFrq <int>, highFrq <int>, IT <dbl>, trt <chr>,
## #   amp_acc <dbl>, timeSinceStart <lgl>, timeSinceLastBuzz <lgl>,
## #   buzzesSinceReward <lgl>, t5 <chr>, t6 <chr>, freqDiff <dbl>
…
bb <- fta %>%
  dplyr::select(beeColHive, trt, trialNum, initialFreq) %>%
  dplyr::filter(trialNum == 2 | trialNum == 3) %>%
  group_by(beeColHive) %>% 
  slice(1:1) %>%
  full_join(cc) %>%
  mutate(freqDiff = initialFreq - meanFreq) %>%
  dplyr::arrange(trt, desc(freqDiff))

## Joining, by = "beeColHive"

bb

## # A tibble: 24 x 6
## # Groups:   beeColHive [24]
##    beeColHive    trt   trialNum initialFreq meanFreq freqDiff
##    <fct>         <chr>    <int>       <dbl>    <dbl>    <dbl>
##  1 green.4       full         2        319.     285     33.9 
##  2 white.4       full         3        343.     314.    28.8 
##  3 yellowgreen.5 full         2        298.     283.    14.7 
##  4 redgreen.5    full         2        335.     326.     8.63
##  5 redblue.4     full         3        342.     341.     1.03
##  6 limeblue.5    full         3        302.     304.    -1.93
##  7 yellowred.5   full         2        320.     339.   -19.3 
##  8 whiteyellow.5 full         2        303.     324.   -20.6 
##  9 limewhite.5   full         2        292      327.   -35.1 
## 10 limeorange.5  full         2        286.     345.   -58.8 
## # ... with 14 more rows

fta <- fta %>%
  mutate(beeColHive = factor(beeColHive, levels = bb$beeColHive)) %>% 
  mutate(t5 = recode(.$trt, "full" = "Full range\n(220 - 450 Hz)", 
                       "high" = "High range\n(340 - 390 Hz)", 
                       "low" = "Low range\n(220 - 330 Hz)")) %>%
  filter(trialNum <= 10)

s44 = fta %>%
  group_by(trialNum, beeColHive, t5) %>%
  dplyr::summarise(meanFreq2 = mean(freq))
s44

## # A tibble: 175 x 4
## # Groups:   trialNum, beeColHive [?]
##    trialNum beeColHive    t5                           meanFreq2
##       <int> <fct>         <chr>                            <dbl>
##  1        1 green.4       "Full range\n(220 - 450 Hz)"      319.
##  2        1 white.4       "Full range\n(220 - 450 Hz)"      343.
##  3        1 yellowgreen.5 "Full range\n(220 - 450 Hz)"      298.
##  4        1 redgreen.5    "Full range\n(220 - 450 Hz)"      335.
##  5        1 redblue.4     "Full range\n(220 - 450 Hz)"      342.
##  6        1 limeblue.5    "Full range\n(220 - 450 Hz)"      302.
##  7        1 yellowred.5   "Full range\n(220 - 450 Hz)"      320.
##  8        1 whiteyellow.5 "Full range\n(220 - 450 Hz)"      303.
##  9        1 limewhite.5   "Full range\n(220 - 450 Hz)"      292 
## 10        1 limeorange.5  "Full range\n(220 - 450 Hz)"      286.
## # ... with 165 more rows
…
dd = sl %>%
  filter(trialNum == 2 | trialNum == 3) %>%
  mutate(trialNum = 99) %>%
  ungroup() %>%
  group_by(beeColHive, trt, trialNum) %>%
  summarise(meanTT = n()) %>%
  arrange(trt, meanTT)
dd

## # A tibble: 24 x 4
## # Groups:   beeColHive, trt [24]
##    beeColHive    trt   trialNum meanTT
##    <fct>         <chr>    <dbl>  <int>
##  1 green.4       full        99      4
##  2 limeorange.5  full        99     51
##  3 limewhite.5   full        99     51
##  4 whiteyellow.5 full        99    102
##  5 limeblue.5    full        99    104
##  6 redgreen.5    full        99    104
##  7 yellowgreen.5 full        99    106
##  8 white.4       full        99    113
##  9 yellowred.5   full        99    114
## 10 redblue.4     full        99    127
## # ... with 14 more rows
…
fta <- sl %>% 
  filter(trialNum == 1) %>% 
  dplyr::group_by(beeColHive) %>%
  dplyr::summarise(initialAmp = mean(amp_acc2)) %>%
  full_join(sl) %>%
  mutate(ampDiff = amp_acc2- initialAmp) %>%
  filter(beeColHive %in% .$beeColHive[.$trialNum > 1]) %>%
  dplyr::arrange(trt) 

## Joining, by = "beeColHive"

fta[fta$beeColHive == "limepurple.5", ]

## # A tibble: 296 x 30
##    beeColHive initialAmp beeCol  hive meanFreq IT_imputed index  freq   amp
##    <fct>           <dbl> <chr>  <int>    <dbl>      <dbl> <int> <dbl> <dbl>
##  1 limepurpl~       22.0 limep~     5     341.       3.48     1   410 0.766
##  2 limepurpl~       22.0 limep~     5     341.       3.48     2   310 0.142
##  3 limepurpl~       22.0 limep~     5     341.       3.48     3   390 0.482
##  4 limepurpl~       22.0 limep~     5     341.       3.48     4   370 0.439
##  5 limepurpl~       22.0 limep~     5     341.       3.48     5   370 0.482
##  6 limepurpl~       22.0 limep~     5     341.       3.48     6   330 0.368
##  7 limepurpl~       22.0 limep~     5     341.       3.48     7   360 0.572
##  8 limepurpl~       22.0 limep~     5     341.       3.48     8   360 0.538
##  9 limepurpl~       22.0 limep~     5     341.       3.48     9   240 0.684
## 10 limepurpl~       22.0 limep~     5     341.       3.48    10   300 0.413
## # ... with 286 more rows, and 21 more variables: datetime <chr>,
## #   rewNum <int>, rewTF <lgl>, lowRewAmp <int>, highrewAmp <int>,
## #   BeeNumCol <chr>, accFile <chr>, trialNum <int>, datetime_str <dttm>,
## #   lowFrq <int>, highFrq <int>, IT <dbl>, trt <chr>, amp_acc <dbl>,
## #   timeSinceStart <lgl>, timeSinceLastBuzz <lgl>,
## #   buzzesSinceReward <lgl>, t5 <chr>, t6 <chr>, amp_acc2 <dbl>,
## #   ampDiff <dbl>
…
fta <- fta %>%
  mutate(beeColHive = factor(beeColHive, levels = bb$beeColHive), 
       t5 = plyr::mapvalues(.$trt, from = c("full", "high", "low"), 
                        to = c("Full range\n(220 - 450 Hz)", 
                               "High range\n(340 - 390 Hz)", "Low range\n(220 - 330 Hz)"))) %>%
  filter(trialNum <= 10)

s44 = fta %>%
  group_by(trialNum, beeColHive, t5) %>%
  dplyr::summarise(meanamp2 = mean(amp_acc2))
s44

## # A tibble: 175 x 4
## # Groups:   trialNum, beeColHive [?]
##    trialNum beeColHive    t5                           meanamp2
##       <int> <fct>         <chr>                           <dbl>
##  1        1 green.4       "Full range\n(220 - 450 Hz)"     22.1
##  2        1 white.4       "Full range\n(220 - 450 Hz)"     23.9
##  3        1 yellowgreen.5 "Full range\n(220 - 450 Hz)"     30.8
##  4        1 redgreen.5    "Full range\n(220 - 450 Hz)"     39.4
##  5        1 redblue.4     "Full range\n(220 - 450 Hz)"     14.4
##  6        1 limeblue.5    "Full range\n(220 - 450 Hz)"     24.6
##  7        1 yellowred.5   "Full range\n(220 - 450 Hz)"     31.4
##  8        1 whiteyellow.5 "Full range\n(220 - 450 Hz)"     32.8
##  9        1 limewhite.5   "Full range\n(220 - 450 Hz)"     18.8
## 10        1 limeorange.5  "Full range\n(220 - 450 Hz)"     21.6
## # ... with 165 more rows
…
